Mastering plotly for R
…
* Consider "wrapping" your time-series 
  * Wrap (i.e., group) your series by hand (get inspired by this [paper](https://arxiv.org/pdf/1412.6675.pdf))
  * Checkout out [sugrrants](https://github.com/earowang/sugrrants) (`ggplotly()` converts the ggplot2 plots)

---
## Texas housing prices

```r
library(dplyr)
tx <- txhousing %>%
  select(city, year, month, median) %>%
  filter(city %in% c("Galveston", "Midland", "Odessa", "South Padre Island"))
tx
#> # A tibble: 748 x 4
#>    city       year month  median
#>    <chr>     <int> <int>   <dbl>
#>  1 Galveston  2000     1  95000.
#>  2 Galveston  2000     2 100000.
#>  3 Galveston  2000     3  98300.
#>  4 Galveston  2000     4 111100.
#>  5 Galveston  2000     5  89200.
#>  6 Galveston  2000     6 108600.
#>  7 Galveston  2000     7  99000.
#>  8 Galveston  2000     8  96200.
#>  9 Galveston  2000     9 104000.
#> 10 Galveston  2000    10 118800.
#> # ... with 738 more rows
```
…
